\relax 
\providecommand*\new@tpo@label[2]{}
\select@language{english}
\@writefile{toc}{\select@language{english}}
\@writefile{lof}{\select@language{english}}
\@writefile{lot}{\select@language{english}}
\@writefile{toc}{\contentsline {section}{\numberline {1}Design decision}{1}}
\@writefile{toc}{\contentsline {section}{\numberline {2}Changes to API}{1}}
\@writefile{toc}{\contentsline {section}{\numberline {3}Missing or incomplete elements}{1}}
\@writefile{toc}{\contentsline {section}{\numberline {4}Difficulty and Confusing}{1}}
